-- Merging decision tree log ---
manifest
ADDED from E:\flutter\.pub-cache\hosted\pub.dartlang.org\firebase_dynamic_links-0.6.0+2\android\src\main\AndroidManifest.xml:1:1-11:12
INJECTED from E:\flutter\.pub-cache\hosted\pub.dartlang.org\firebase_dynamic_links-0.6.0+2\android\src\main\AndroidManifest.xml:1:1-11:12
INJECTED from E:\flutter\.pub-cache\hosted\pub.dartlang.org\firebase_dynamic_links-0.6.0+2\android\src\main\AndroidManifest.xml:1:1-11:12
	package
		ADDED from E:\flutter\.pub-cache\hosted\pub.dartlang.org\firebase_dynamic_links-0.6.0+2\android\src\main\AndroidManifest.xml:2:3-52
		INJECTED from E:\flutter\.pub-cache\hosted\pub.dartlang.org\firebase_dynamic_links-0.6.0+2\android\src\main\AndroidManifest.xml
		INJECTED from E:\flutter\.pub-cache\hosted\pub.dartlang.org\firebase_dynamic_links-0.6.0+2\android\src\main\AndroidManifest.xml
	xmlns:android
		ADDED from E:\flutter\.pub-cache\hosted\pub.dartlang.org\firebase_dynamic_links-0.6.0+2\android\src\main\AndroidManifest.xml:1:11-69
uses-permission#android.permission.INTERNET
ADDED from E:\flutter\.pub-cache\hosted\pub.dartlang.org\firebase_dynamic_links-0.6.0+2\android\src\main\AndroidManifest.xml:4:3-65
	android:name
		ADDED from E:\flutter\.pub-cache\hosted\pub.dartlang.org\firebase_dynamic_links-0.6.0+2\android\src\main\AndroidManifest.xml:4:20-62
application
ADDED from E:\flutter\.pub-cache\hosted\pub.dartlang.org\firebase_dynamic_links-0.6.0+2\android\src\main\AndroidManifest.xml:5:3-10:17
service#com.google.firebase.components.ComponentDiscoveryService
ADDED from E:\flutter\.pub-cache\hosted\pub.dartlang.org\firebase_dynamic_links-0.6.0+2\android\src\main\AndroidManifest.xml:6:5-9:15
	android:name
		ADDED from E:\flutter\.pub-cache\hosted\pub.dartlang.org\firebase_dynamic_links-0.6.0+2\android\src\main\AndroidManifest.xml:6:14-85
meta-data#com.google.firebase.components:io.flutter.plugins.firebasedynamiclinks.FlutterFirebaseAppRegistrar
ADDED from E:\flutter\.pub-cache\hosted\pub.dartlang.org\firebase_dynamic_links-0.6.0+2\android\src\main\AndroidManifest.xml:7:7-8:86
	android:value
		ADDED from E:\flutter\.pub-cache\hosted\pub.dartlang.org\firebase_dynamic_links-0.6.0+2\android\src\main\AndroidManifest.xml:8:18-83
	android:name
		ADDED from E:\flutter\.pub-cache\hosted\pub.dartlang.org\firebase_dynamic_links-0.6.0+2\android\src\main\AndroidManifest.xml:7:18-131
uses-sdk
INJECTED from E:\flutter\.pub-cache\hosted\pub.dartlang.org\firebase_dynamic_links-0.6.0+2\android\src\main\AndroidManifest.xml reason: use-sdk injection requested
INJECTED from E:\flutter\.pub-cache\hosted\pub.dartlang.org\firebase_dynamic_links-0.6.0+2\android\src\main\AndroidManifest.xml
INJECTED from E:\flutter\.pub-cache\hosted\pub.dartlang.org\firebase_dynamic_links-0.6.0+2\android\src\main\AndroidManifest.xml
	android:minSdkVersion
		INJECTED from E:\flutter\.pub-cache\hosted\pub.dartlang.org\firebase_dynamic_links-0.6.0+2\android\src\main\AndroidManifest.xml
		ADDED from E:\flutter\.pub-cache\hosted\pub.dartlang.org\firebase_dynamic_links-0.6.0+2\android\src\main\AndroidManifest.xml
		INJECTED from E:\flutter\.pub-cache\hosted\pub.dartlang.org\firebase_dynamic_links-0.6.0+2\android\src\main\AndroidManifest.xml
